403983 294293 441
522063 860951 525
925795 873707 476
509223 541032 470
196338 643979 509
457304 84294 449
735533 809001 468
185906 587038 470
284192 369732 441
638281 606439 509
507662 847207 525
629500 99931 509
493129 937806 525
578904 800587 509
730701 972826 525
868314 779059 525
219904 2693 386
613326 847536 525
848615 440405 525
47894 648691 509
229012 100558 386
781335 240490 509
254444 215545 443
244914 744518 509
516077 262 470
483272 156460 449
438309 967229 525
496425 854588 525
296010 407938 441
987821 766815 525
73833 850768 525
286933 326744 389
937001 167199 525
422233 553854 470
600832 543593 452
486468 631347 509
54036 467597 449
483990 509602 426
430998 18986 449
834950 134396 509
381009 199739 443
951796 997010 458
226084 594736 470
776680 901787 525
808364 901526 525
326222 161514 443
839063 16479 525
836086 815719 450
323907 711703 509
730946 246018 509
981524 642108 525
251090 398184 441
911614 817217 525
98636 235703 443
103262 268387 443
688942 171663 509
858779 702546 525
334372 469879 449
887016 391942 525
832830 874259 525
822031 296008 509
115659 566654 470
429404 336754 449
626315 144309 470
12043 197575 383
282308 293968 389
340694 372856 441
271177 604487 470
194048 399695 443
471923 858972 525
57671 620296 470
380276 524134 470
239179 50023 443
596376 295787 470
475103 849804 525
258115 718510 509
287254 953516 525
802708 558115 509
831749 296532 509
107984 856805 525
404869 387282 436
966186 976711 458
664758 646788 429
799979 300715 509
919177 714692 525
675259 124873 509
720632 412866 509
890968 365628 525
800271 225766 509
55771 781392 509
320568 859999 525
630674 372621 509
252283 982920 525
635672 257028 509
469357 374892 449
672257 194109 509
899093 404239 525
849179 264414 525
215919 86227 383
559055 805733 509
374654 268846 441
323038 750139 509
633174 772369 504
688238 586324 509
949220 154630 525
176753 7746 383
207380 598917 470
281384 350810 441
828180 346729 509
44915 422264 449
829807 802006 450
89013 340213 443
737796 193166 509
243468 511798 449
229039 699490 509
846471 758630 525
821957 258625 509
426141 743954 509
384042 809569 509
189609 678497 509
659112 614175 509
139901 354851 443
999980 479892 525
123275 643708 509
354932 866217 525
181100 125359 383
812130 631455 504
105344 64959 351
161817 591127 470
833819 932763 525
523334 162166 470
135365 272483 443
895045 516295 525
588974 799919 509
320330 503552 449
488594 428762 444
410622 965694 525
962946 781799 525
376892 8131 443
940488 10797 525
739908 81682 509
217080 600199 470
833195 441306 509
267320 501259 449
851410 996406 507
927284 793042 525
231421 365749 441
727529 964758 525
507359 292398 449
973253 514385 525
14369 984776 525
438894 820213 509
36722 790699 509
225955 357099 443
509844 646033 509
578474 62254 470
261498 830918 509
458165 937087 525
821446 301035 509
895083 5554 525
409506 339515 441
569508 94443 470
864392 16362 525
233475 558523 470
379606 218230 443
865729 668153 525
59432 581545 470
413645 40298 449
544685 330192 470
334831 690659 509
569533 815122 509
347559 190898 443
696152 599687 509
760401 204381 509
237075 807699 509
278119 323943 389
388980 813071 509
826717 998106 525
91706 72492 351
148482 71017 375
889775 377 525
691891 956831 525
338789 267806 407
205293 517408 470
944514 724732 525
185353 464531 449
734188 196428 509
185654 206736 360
139112 425546 449
702970 471058 509
805233 758289 468
44016 807928 509
942041 401218 525
359863 112643 443
939258 443287 525
802902 109399 509
460927 216268 449
757282 814732 468
138066 680969 509
210306 335887 443
